{
  "project_info": {
    "project_number": "33554522526",
    "firebase_url": "https://news-hive-nigeria.firebaseio.com",
    "project_id": "news-hive-nigeria",
    "storage_bucket": "news-hive-nigeria.appspot.com"
  },
  "client": [
    {
      "client_info": {
        "mobilesdk_app_id": "1:33554522526:android:1dfe9cbf3bef48cc",
        "android_client_info": {
          "package_name": "com.enigmaproapps.newshivenigeria"
        }
      },
      "oauth_client": [
        {
          "client_id": "33554522526-0jopdubp5ul5i5sauomgbeqsq0aadebf.apps.googleusercontent.com",
          "client_type": 3
        }
      ],
      "api_key": [
        {
          "current_key": "AIzaSyA0ORWka_KY-CKRPeeSi7lb6PSQU369j_w"
        }
      ],
      "services": {
        "analytics_service": {
          "status": 1
        },
        "appinvite_service": {
          "status": 1,
          "other_platform_oauth_client": []
        },
        "ads_service": {
          "status": 2
        }
      }
    }
  ],
  "configuration_version": "1"
}